{
    "dev": {
        "awscloudformation": {
            "AuthRoleName": "amplify-romuxis-dev-113703-authRole",
            "UnauthRoleArn": "arn:aws:iam::910630674321:role/amplify-romuxis-dev-113703-unauthRole",
            "AuthRoleArn": "arn:aws:iam::910630674321:role/amplify-romuxis-dev-113703-authRole",
            "Region": "eu-central-1",
            "DeploymentBucketName": "amplify-romuxis-dev-113703-deployment",
            "UnauthRoleName": "amplify-romuxis-dev-113703-unauthRole",
            "StackName": "amplify-romuxis-dev-113703",
            "StackId": "arn:aws:cloudformation:eu-central-1:910630674321:stack/amplify-romuxis-dev-113703/e906ea00-acb3-11eb-83dd-068e11d43e1e",
            "AmplifyAppId": "d2a89tkw27yt4c"
        },
        "categories": {
            "auth": {
                "romuxis217a5622": {}
            },
            "hosting": {
                "amplifyhosting": {
                    "appId": "d2a89tkw27yt4c",
                    "type": "manual"
                }
            }
        }
    }
}